Parker Hines,11,0,25,25,843,33.7,103-277,37.2,34-110,30.9,82-105,78.1,20,95,115,4.6,62,3,129,5.2,54,2.2,2.4,12,0.5,31,1.2,322,12.9
Collin Olmscheid,2,0,25,4,679,27.2,113-227,49.8,36-86,41.9,46-53,86.8,31,94,125,5,29,0,16,0.6,27,1.1,0.6,4,0.2,15,0.6,308,12.3
Joe Zangel,31,0,25,25,462,18.5,90-160,56.3,7-17,41.2,33-51,64.7,40,56,96,3.8,53,3,14,0.6,35,1.4,0.4,5,0.2,10,0.4,220,8.8
Brett Rasmussen,32,0,25,23,589,23.6,79-162,48.8,1-8,12.5,52-79,65.8,38,60,98,3.9,43,0,24,1,38,1.5,0.6,4,0.2,8,0.3,211,8.4
Joey Sonnenfeld,15,0,22,2,301,13.7,41-90,45.6,3-14,21.4,31-44,70.5,20,21,41,1.9,38,1,8,0.4,15,0.7,0.5,1,0,6,0.3,116,5.3
Brandon Little,3,0,24,19,523,21.8,48-127,37.8,17-55,30.9,13-24,54.2,5,52,57,2.4,36,2,29,1.2,28,1.2,1,1,0,15,0.6,126,5.3
Ryan Gilmer,5,0,25,25,701,28,36-116,31,24-63,38.1,23-28,82.1,24,79,103,4.1,41,0,28,1.1,26,1,1.1,0,0,12,0.5,119,4.8
Richie Perea,23,0,20,-,440,22,27-78,34.6,15-31,48.4,11-16,68.8,13,32,45,2.3,31,1,45,2.3,16,0.8,2.8,0,0,15,0.8,80,4
Harry Sonie,10,0,16,2,213,13.3,17-49,34.7,4-17,23.5,25-33,75.8,9,26,35,2.2,30,2,18,1.1,16,1,1.1,1,0.1,5,0.3,63,3.9
Steele Krause,24,0,19,-,132,6.9,19-50,38,15-45,33.3,1-2,50,3,5,8,0.4,12,0,6,0.3,2,0.1,3,1,0.1,9,0.5,54,2.8
Myles Shepherd-Anderson,34,0,10,-,61,6.1,8-13,61.5,0-1,0,3-6,50,5,3,8,0.8,8,0,3,0.3,3,0.3,1,0,0,1,0.1,19,1.9
Ty McMinimee,30,0,10,-,42,4.2,4-11,36.4,1-6,16.7,0-0,-,1,5,6,0.6,7,0,0,0,1,0.1,0,0,0,0,0,9,0.9
Nick Varner,44,0,5,-,16,3.2,2-2,100,0-0,-,0-3,0,1,5,6,1.2,1,-,0,0,2,0.4,0,0,0,2,0.4,4,0.8
Andrew Julkowski,4,0,4,-,10,2.5,1-2,50,0-0,-,1-2,50,1,0,1,0.3,1,-,1,0.3,0,0,-,0,0,0,0,3,0.8
Jesse Johnson,33,0,3,-,5,1.7,0-0,-,0-0,-,0-0,-,0,0,0,0,1,-,0,0,1,0.3,0,0,0,0,0,0,0
Dogukan Kuzucan,25,0,1,-,1,1,0-0,-,0-0,-,0-0,-,0,0,0,0,0,-,0,0,0,0,-,0,0,0,0,0,0
Carson Seifert,12,0,3,-,6,2,0-3,0,0-2,0,0-1,0,0,1,1,0.3,0,-,1,0.3,0,0,-,1,0.3,0,0,0,0
Kyle Zimmermann,33,1,28,28,950,33.9,193-318,60.7,0-0,-,107-156,68.6,99,169,268,9.6,53,0,50,1.8,29,1,1.7,55,2,44,1.6,493,17.6
Brycen Wojta,10,1,28,28,990,35.4,145-312,46.5,43-103,41.7,78-96,81.3,8,68,76,2.7,53,1,90,3.2,74,2.6,1.2,3,0.1,36,1.3,411,14.7
Bridgeport Tusler,50,1,26,24,762,29.3,130-284,45.8,31-89,34.8,57-102,55.9,19,76,95,3.7,61,0,69,2.7,54,2.1,1.3,9,0.3,52,2,348,13.4
K Von schmidt-Pauli,25,1,28,28,748,26.7,80-172,46.5,34-76,44.7,48-60,80,24,85,109,3.9,71,0,25,0.9,38,1.4,0.7,14,0.5,9,0.3,242,8.6
Morgan Barth,3,1,1,1,25,25,3-7,42.9,2-5,40,0-0,-,0,1,1,1,1,0,1,1,0,0,-,0,0,3,3,8,8
Trevor Hall,11,1,28,28,828,29.6,77-178,43.3,29-90,32.2,19-26,73.1,30,65,95,3.4,44,1,67,2.4,28,1,2.4,14,0.5,41,1.5,202,7.2
Jared Nelson,4,1,21,1,377,18,36-89,40.4,27-72,37.5,3-4,75,6,24,30,1.4,30,0,17,0.8,4,0.2,4.3,5,0.2,4,0.2,102,4.9
Derek Hamner,32,1,8,1,118,14.8,14-44,31.8,5-23,21.7,3-8,37.5,8,15,23,2.9,8,0,9,1.1,7,0.9,1.3,2,0.3,4,0.5,36,4.5
Jackson Canfield,12,1,23,-,311,13.5,33-76,43.4,11-33,33.3,19-29,65.5,13,43,56,2.4,36,2,14,0.6,20,0.9,0.7,14,0.6,10,0.4,96,4.2
Sean Baumgard,44,1,5,-,10,2,4-9,44.4,1-4,25,1-2,50,0,0,0,0,1,0,0,0,1,0.2,0,0,0,0,0,10,2
Tim Hanson,41,1,28,-,234,8.4,19-45,42.2,0-6,0,4-10,40,19,16,35,1.3,28,0,12,0.4,10,0.4,1.2,5,0.2,8,0.3,42,1.5
Aden Casey,22,1,25,-,233,9.3,9-31,29,3-12,25,4-8,50,1,18,19,0.8,18,0,18,0.7,14,0.6,1.3,1,0,10,0.4,25,1
Ross Groeneweg,34,1,6,-,17,2.8,1-2,50,0-0,-,1-4,25,2,1,3,0.5,2,0,0,0,1,0.2,0,0,0,1,0.2,3,0.5
Brenndon Lebert,20,1,4,-,7,1.8,1-1,100,0-0,-,0-0,-,0,4,4,1,1,0,1,0.3,0,0,-,0,0,0,0,2,0.5
Tommy Boyd,24,1,6,-,14,2.3,1-5,20,0-0,-,0-0,-,2,1,3,0.5,3,0,0,0,1,0.2,0,0,0,0,0,2,0.3
Jared Kidder,30,1,6,-,11,1.8,1-4,25,0-2,0,0-0,-,0,2,2,0.3,2,0,0,0,0,0,-,0,0,0,0,2,0.3
Dustin Barth,42,1,1,-,2,2,0-0,-,0-0,-,0-0,-,0,0,0,0,0,0,0,0,0,0,-,0,0,1,1,0,0
Shane McSparron,15,2,21,20,706,33.6,104-234,44.4,1-5,20,62-87,71.3,7,36,43,2,31,0,25,1.2,40,1.9,0.6,15,0.7,14,0.7,271,12.9
Tianen Chen,31,2,25,11,562,22.5,113-216,52.3,3-10,30,46-71,64.8,41,46,87,3.5,50,1,9,0.4,34,1.4,0.3,9,0.4,4,0.2,275,11
Kevin Grow,35,2,25,17,679,27.2,94-164,57.3,0-0,-,47-83,56.6,65,149,214,8.6,55,2,54,2.2,47,1.9,1.1,54,2.2,7,0.3,235,9.4
Mitchell Biewen,21,2,25,25,764,30.6,75-197,38.1,48-143,33.6,23-36,63.9,11,50,61,2.4,40,1,46,1.8,26,1,1.8,7,0.3,20,0.8,221,8.8
Peter Bakker-Arkema,11,2,25,25,762,30.5,58-169,34.3,35-101,34.7,15-27,55.6,6,77,83,3.3,49,0,70,2.8,44,1.8,1.6,5,0.2,17,0.7,166,6.6
Beau Smit,23,2,22,2,400,18.2,46-98,46.9,11-32,34.4,22-26,84.6,13,26,39,1.8,25,0,18,0.8,19,0.9,0.9,3,0.1,10,0.5,125,5.7
John Eckert,45,2,25,25,705,28.2,55-121,45.5,0-1,0,26-41,63.4,55,147,202,8.1,55,1,69,2.8,55,2.2,1.3,10,0.4,9,0.4,136,5.4
Ryan Casperson,33,2,25,-,281,11.2,26-55,47.3,1-6,16.7,5-9,55.6,21,32,53,2.1,28,0,29,1.2,18,0.7,1.6,1,0,2,0.1,58,2.3
Walker Froehling,43,2,14,-,133,9.5,7-20,35,7-15,46.7,1-3,33.3,5,14,19,1.4,7,0,15,1.1,15,1.1,1,3,0.2,0,0,22,1.6
Charles Linneman,41,2,8,-,26,3.3,1-3,33.3,1-2,50,5-6,83.3,0,4,4,0.5,3,-,1,0.1,4,0.5,0.3,1,0.1,3,0.4,8,1
Patrick England,25,2,10,-,45,4.5,3-6,50,2-4,50,0-1,0,0,4,4,0.4,6,-,7,0.7,10,1,0.7,0,0,0,0,8,0.8
Malekai Mischke,5,2,6,-,12,2,1-5,20,0-0,-,0-0,-,0,1,1,0.2,0,-,1,0.2,0,0,-,0,0,0,0,2,0.3
Jordan Bolger,23,3,26,26,828,31.8,155-299,51.8,1-11,9.1,68-112,60.7,65,149,214,8.2,61,1,38,1.5,50,1.9,0.8,5,0.2,33,1.3,379,14.6
Brandon Giese,5,3,26,26,714,27.5,106-260,40.8,57-158,36.1,42-49,85.7,5,57,62,2.4,39,1,63,2.4,36,1.4,1.8,2,0.1,20,0.8,311,12
Tom Fraase,4,3,26,25,709,27.3,96-215,44.7,31-93,33.3,29-45,64.4,27,47,74,2.8,20,0,49,1.9,24,0.9,2,1,0,22,0.8,252,9.7
Brady Syverson,22,3,16,16,378,23.6,52-118,44.1,2-5,40,19-32,59.4,19,52,71,4.4,36,0,13,0.8,8,0.5,1.6,9,0.6,9,0.6,125,7.8
Brett Bergeson,20,3,26,-,395,15.2,50-115,43.5,38-80,47.5,19-24,79.2,8,23,31,1.2,19,0,13,0.5,14,0.5,0.9,0,0,10,0.4,157,6
Scott Flotterud,40,3,26,10,491,18.9,53-117,45.3,0-1,0,29-47,61.7,37,73,110,4.2,51,1,12,0.5,20,0.8,0.6,25,1,5,0.2,135,5.2
Ryan Rude,3,3,26,26,730,28.1,34-88,38.6,9-33,27.3,13-28,46.4,13,62,75,2.9,53,0,65,2.5,30,1.2,2.2,5,0.2,30,1.2,90,3.5
Aaron Zimmer,44,3,19,-,180,9.5,17-33,51.5,0-0,-,18-27,66.7,9,21,30,1.6,27,0,7,0.4,10,0.5,0.7,1,0.1,2,0.1,52,2.7
Isaac Anderson,52,3,14,-,88,6.3,16-35,45.7,0-0,-,4-8,50,12,15,27,1.9,8,0,4,0.3,6,0.4,0.7,2,0.1,1,0.1,36,2.6
Zach Kinny,30,3,16,-,87,5.4,13-29,44.8,5-16,31.3,5-6,83.3,1,7,8,0.5,8,0,11,0.7,12,0.8,0.9,0,0,3,0.2,36,2.3
Austin Nelson,24,3,25,1,259,10.4,23-70,32.9,6-24,25,3-5,60,5,25,30,1.2,14,0,15,0.6,13,0.5,1.2,4,0.2,5,0.2,55,2.2
Dylan Alderman,2,3,7,-,27,3.9,3-4,75,1-1,100,5-5,100,0,1,1,0.1,8,1,3,0.4,3,0.4,1,0,0,2,0.3,12,1.7
Corey Abbas,14,3,8,-,35,4.4,4-15,26.7,2-4,50,0-0,-,0,3,3,0.4,0,0,2,0.3,1,0.1,2,0,0,2,0.3,10,1.3
Jordan Deutsch,21,3,18,-,101,5.6,9-16,56.3,2-6,33.3,1-4,25,12,20,32,1.8,15,0,6,0.3,9,0.5,0.7,4,0.2,5,0.3,21,1.2
Casey Bruggeman,12,3,11,-,59,5.4,3-15,20,0-3,0,1-3,33.3,1,8,9,0.8,6,0,7,0.6,5,0.5,1.4,0,0,1,0.1,7,0.6
Matt Ellingson,10,3,17,-,119,7,1-9,11.1,0-0,-,0-2,0,0,11,11,0.6,9,0,17,1,6,0.4,2.8,0,0,2,0.1,2,0.1
Austin Heins,42,3,1,-,0,0,0-0,-,0-0,-,0-0,-,0,1,1,1,0,-,0,0,0,0,-,0,0,0,0,0,0
Noah Kaczor,50,3,1,-,0,0,0-1,0,0-0,-,0-0,-,0,0,0,0,0,-,0,0,0,0,-,0,0,1,1,0,0
Austin Rund,25,3,1,-,0,0,0-0,-,0-0,-,0-0,-,0,0,0,0,1,0,0,0,0,0,-,0,0,0,0,0,0
Gary Cooper,2,4,27,27,656,24.3,122-231,52.8,7-30,23.3,51-70,72.9,21,79,100,3.7,51,1,62,2.3,53,2,1.2,10,0.4,39,1.4,302,11.2
Brody Ziegler,43,4,27,27,767,28.4,99-188,52.7,0-1,0,35-62,56.5,46,95,141,5.2,54,1,32,1.2,30,1.1,1.1,23,0.9,22,0.8,233,8.6
Isaac Tapp,10,4,27,27,685,25.4,95-209,45.5,13-41,31.7,26-33,78.8,17,29,46,1.7,20,0,44,1.6,29,1.1,1.5,6,0.2,21,0.8,229,8.5
Sergio Najera,44,4,27,21,634,23.5,90-203,44.3,0-3,0,44-54,81.5,30,55,85,3.1,43,0,30,1.1,29,1.1,1,24,0.9,11,0.4,224,8.3
Peter Kruize,33,4,27,4,531,19.7,87-174,50,0-0,-,29-39,74.4,35,85,120,4.4,64,2,16,0.6,36,1.3,0.4,9,0.3,3,0.1,203,7.5
Chad Poppen,3,4,27,2,481,17.8,66-145,45.5,28-72,38.9,35-40,87.5,6,41,47,1.7,34,0,18,0.7,17,0.6,1.1,1,0,16,0.6,195,7.2
Martin Feddersen,12,4,27,27,733,27.1,66-115,57.4,2-12,16.7,46-56,82.1,24,122,146,5.4,59,0,84,3.1,55,2,1.5,5,0.2,34,1.3,180,6.7
Chris Narum,4,4,27,-,467,17.3,42-91,46.2,22-54,40.7,8-18,44.4,13,36,49,1.8,50,1,48,1.8,10,0.4,4.8,0,0,22,0.8,114,4.2
Coleman Sweeney,20,4,21,-,262,12.5,15-30,50,0-2,0,13-19,68.4,11,23,34,1.6,43,0,29,1.4,29,1.4,1,2,0.1,8,0.4,43,2
Jacob Herd,5,4,4,-,14,3.5,4-10,40,0-3,0,0-0,-,2,1,3,0.8,2,0,5,1.3,0,0,-,0,0,1,0.3,8,2
Alec Koster,23,4,18,-,145,8.1,13-39,33.3,7-24,29.2,2-3,66.7,7,11,18,1,9,0,10,0.6,6,0.3,1.7,1,0.1,4,0.2,35,1.9
Jason Faul,30,4,3,-,7,2.3,1-2,50,0-1,0,0-0,-,1,0,1,0.3,1,0,0,0,0,0,-,0,0,0,0,2,0.7
Jake Weber,99,4,3,-,17,5.7,1-4,25,0-0,-,0-0,-,3,1,4,1.3,2,0,0,0,1,0.3,0,0,0,2,0.7,2,0.7
Benjamin Lies,40,4,7,-,22,3.1,1-6,16.7,0-0,-,0-0,-,0,1,1,0.1,5,0,0,0,5,0.7,0,1,0.1,1,0.1,2,0.3
Schuyler Thompson,34,4,2,-,4,2,0-1,0,0-0,-,0-0,-,0,0,0,0,0,-,0,0,0,0,-,0,0,0,0,0,0
Dior Ford,32,5,24,24,806,33.6,128-297,43.1,31-106,29.2,50-64,78.1,31,74,105,4.4,56,0,33,1.4,52,2.2,0.6,47,2,33,1.4,337,14
Austin Johnson,24,5,25,25,695,27.8,103-203,50.7,21-57,36.8,47-70,67.1,34,84,118,4.7,58,0,24,1,38,1.5,0.6,7,0.3,17,0.7,274,11
Zach Smith,12,5,25,25,606,24.2,71-157,45.2,18-49,36.7,49-55,89.1,17,48,65,2.6,34,0,62,2.5,35,1.4,1.8,3,0.1,23,0.9,209,8.4
Dylan See-Rockers,3,5,24,12,484,20.2,69-139,49.6,11-35,31.4,23-37,62.2,20,42,62,2.6,43,1,18,0.8,37,1.5,0.5,9,0.4,17,0.7,172,7.2
Quinton Garvis,5,5,25,9,476,19,58-139,41.7,32-76,42.1,18-30,60,11,40,51,2,42,0,22,0.9,38,1.5,0.6,7,0.3,14,0.6,166,6.6
Bennett Cooper,30,5,25,14,453,18.1,68-121,56.2,0-0,-,17-31,54.8,36,61,97,3.9,44,1,14,0.6,25,1,0.6,3,0.1,8,0.3,153,6.1
Travis Johnson,20,5,24,13,547,22.8,47-118,39.8,14-52,26.9,19-22,86.4,26,72,98,4.1,52,1,64,2.7,43,1.8,1.5,7,0.3,25,1,127,5.3
TC Robinson,42,5,25,-,303,12.1,33-84,39.3,17-48,35.4,17-26,65.4,8,27,35,1.4,10,0,21,0.8,15,0.6,1.4,0,0,22,0.9,100,4
Herbert Tarpeh,50,5,25,2,324,13,31-57,54.4,0-0,-,9-19,47.4,27,48,75,3,51,2,5,0.2,15,0.6,0.3,8,0.3,9,0.4,71,2.8
Blaine Storlie,31,5,15,-,98,6.5,9-25,36,5-13,38.5,6-10,60,1,3,4,0.3,10,0,8,0.5,10,0.7,0.8,1,0.1,5,0.3,29,1.9
McDaniel Doe,21,5,7,-,33,4.7,4-10,40,1-3,33.3,1-2,50,3,5,8,1.1,1,0,0,0,1,0.1,0,0,0,0,0,10,1.4
Bailey Boike,33,5,6,-,21,3.5,3-5,60,0-0,-,0-2,0,1,5,6,1,3,0,0,0,1,0.2,0,0,0,0,0,6,1
Marshall Jestings,23,5,13,1,111,8.5,5-13,38.5,2-5,40,0-1,0,1,10,11,0.8,6,0,16,1.2,12,0.9,1.3,0,0,6,0.5,12,0.9
Travis Vanelsberg,4,5,12,-,61,5.1,2-9,22.2,0-7,0,2-2,100,4,3,7,0.6,4,0,4,0.3,3,0.3,1.3,1,0.1,2,0.2,6,0.5
Brian Hartman,2,5,7,-,22,3.1,1-2,50,0-0,-,0-2,0,2,1,3,0.4,0,0,0,0,0,0,-,0,0,0,0,2,0.3
Nick Kampa,10,5,1,-,1,1,0-0,-,0-0,-,0-0,-,0,0,0,0,0,0,0,0,0,0,-,0,0,0,0,0,0
Bret Lukes,11,5,8,-,22,2.8,0-1,0,0-1,0,0-2,0,0,1,1,0.1,0,0,2,0.3,1,0.1,2,0,0,1,0.1,0,0
Nick Powell,34,5,3,-,13,4.3,0-2,0,0-1,0,0-0,-,0,1,1,0.3,0,0,0,0,0,0,-,0,0,0,0,0,0
Kareem Ismail,33,6,25,25,722,28.9,130-277,46.9,0-1,0,88-114,77.2,59,126,185,7.4,81,2,36,1.4,62,2.5,0.6,22,0.9,17,0.7,348,13.9
Dylan Kilgour,3,6,25,25,815,32.6,104-245,42.4,51-136,37.5,40-57,70.2,8,65,73,2.9,63,2,56,2.2,49,2,1.1,1,0,18,0.7,299,12
Kyle Bernhard,12,6,25,18,656,26.2,68-152,44.7,35-89,39.3,18-25,72,8,66,74,3,50,0,25,1,34,1.4,0.7,1,0,7,0.3,189,7.6
Bert Yaffe,34,6,25,25,736,29.4,67-145,46.2,26-53,49.1,20-33,60.6,15,70,85,3.4,32,0,56,2.2,32,1.3,1.8,9,0.4,17,0.7,180,7.2
Phil Levine-Caleb,13,6,9,-,117,13,12-32,37.5,1-7,14.3,13-27,48.1,10,16,26,2.9,14,0,7,0.8,10,1.1,0.7,3,0.3,3,0.3,38,4.2
Jordan Black,0,6,24,-,426,17.8,29-81,35.8,3-17,17.6,14-19,73.7,9,44,53,2.2,32,0,24,1,26,1.1,0.9,2,0.1,11,0.5,75,3.1
Max Horvath,5,6,23,-,278,12.1,26-70,37.1,0-1,0,11-13,84.6,11,31,42,1.8,41,0,16,0.7,21,0.9,0.8,5,0.2,8,0.3,63,2.7
Hans Erickson,10,6,25,25,478,19.1,25-61,41,6-22,27.3,5-11,45.5,10,30,40,1.6,30,0,39,1.6,26,1,1.5,5,0.2,13,0.5,61,2.4
Sager Moritzky,21,6,19,7,280,14.7,15-53,28.3,7-23,30.4,9-10,90,2,18,20,1.1,13,0,34,1.8,27,1.4,1.3,2,0.1,6,0.3,46,2.4
Griffin Glatt,24,6,22,-,212,9.6,12-45,26.7,1-13,7.7,8-13,61.5,10,17,27,1.2,21,1,15,0.7,10,0.5,1.5,0,0,3,0.1,33,1.5
Luke Poulsen,11,6,18,-,146,8.1,9-21,42.9,1-5,20,3-7,42.9,10,17,27,1.5,22,0,5,0.3,4,0.2,1.3,4,0.2,1,0.1,22,1.2
Zach Gullerud,40,6,16,-,88,5.5,5-14,35.7,0-0,-,6-6,100,3,6,9,0.6,13,0,4,0.3,6,0.4,0.7,2,0.1,1,0.1,16,1
Gunnar Goeden,20,6,14,-,85,6.1,4-21,19,2-13,15.4,1-2,50,3,2,5,0.4,7,1,5,0.4,7,0.5,0.7,0,0,2,0.1,11,0.8
Brett Olson,23,6,7,-,19,2.7,2-4,50,1-2,50,0-0,-,0,1,1,0.1,2,0,0,0,1,0.1,0,0,0,0,0,5,0.7
Will Lutz,22,6,6,-,9,1.5,0-2,0,0-0,-,3-4,75,0,3,3,0.5,2,-,0,0,3,0.5,0,0,0,0,0,3,0.5
Thomas Oriente,44,6,6,-,8,1.3,0-1,0,0-0,-,1-2,50,0,1,1,0.2,1,0,0,0,0,0,-,0,0,0,0,1,0.2
Alex Schmitt,1,7,25,25,785,31.4,148-316,46.8,42-109,38.5,62-72,86.1,13,29,42,1.7,45,0,63,2.5,57,2.3,1.1,1,0,16,0.6,400,16
Mitchell Kuck,5,7,26,26,828,31.8,138-299,46.2,53-132,40.2,71-97,73.2,19,70,89,3.4,48,0,74,2.8,54,2.1,1.4,8,0.3,41,1.6,400,15.4
Joe Risinger,10,7,26,25,829,31.9,109-244,44.7,22-67,32.8,44-58,75.9,33,85,118,4.5,51,0,40,1.5,67,2.6,0.6,7,0.3,31,1.2,284,10.9
Patrick Strom,31,7,26,1,426,16.4,63-138,45.7,44-89,49.4,10-12,83.3,7,27,34,1.3,19,0,7,0.3,9,0.3,0.8,1,0,6,0.2,180,6.9
Tyler Weiss,51,7,25,17,541,21.6,70-122,57.4,0-2,0,26-40,65,29,61,90,3.6,62,1,27,1.1,18,0.7,1.5,30,1.2,12,0.5,166,6.6
Blake Maslonkowski,41,7,26,26,591,22.7,61-116,52.6,0-0,-,28-35,80,54,129,183,7,53,0,21,0.8,27,1,0.8,4,0.2,31,1.2,150,5.8
Jacob Peterson,42,7,26,1,368,14.2,52-84,61.9,0-0,-,22-38,57.9,42,78,120,4.6,58,0,15,0.6,21,0.8,0.7,8,0.3,13,0.5,126,4.8
Tarik Hujdurovic,23,7,25,6,300,12,24-64,37.5,10-25,40,9-9,100,1,27,28,1.1,19,0,34,1.4,21,0.8,1.6,0,0,4,0.2,67,2.7
Brent Hentges,33,7,19,-,98,5.2,11-23,47.8,5-9,55.6,5-9,55.6,3,8,11,0.6,8,0,8,0.4,3,0.2,2.7,0,0,5,0.3,32,1.7
Jordan Peterson,44,7,5,-,15,3,3-3,100,0-0,-,2-4,50,2,1,3,0.6,4,-,0,0,1,0.2,0,0,0,0,0,8,1.6
Mitch Wollin,21,7,25,-,244,9.8,11-21,52.4,4-6,66.7,6-8,75,24,21,45,1.8,30,0,7,0.3,10,0.4,0.7,5,0.2,1,0,32,1.3
Nick Latzke,22,7,9,-,19,2.1,4-7,57.1,2-4,50,1-3,33.3,2,1,3,0.3,1,-,1,0.1,1,0.1,1,0,0,0,0,11,1.2
Dan Flesher,45,7,8,1,18,2.3,2-4,50,1-1,100,2-2,100,1,0,1,0.1,2,-,1,0.1,2,0.3,0.5,0,0,0,0,7,0.9
Chase Luebker,30,7,12,1,66,5.5,4-10,40,0-4,0,1-5,20,8,12,20,1.7,12,0,10,0.8,6,0.5,1.7,0,0,6,0.5,9,0.8
Garrett Goetz,15,7,21,1,82,3.9,1-3,33.3,0-2,0,4-4,100,3,5,8,0.4,8,0,10,0.5,7,0.3,1.4,0,0,0,0,6,0.3
Ryan Buron,52,7,3,-,2,0.7,0-1,0,0-0,-,0-0,-,0,2,2,0.7,0,-,1,0.3,0,0,-,0,0,0,0,0,0
John Oliver,11,7,6,-,13,2.2,0-1,0,0-0,-,0-0,-,2,2,4,0.7,4,0,0,0,1,0.2,0,0,0,0,0,0,0
Will Swiggum,32,8,25,25,782,31.3,99-233,42.5,17-56,30.4,45-57,78.9,35,112,147,5.9,50,0,30,1.2,50,2,0.6,3,0.1,14,0.6,260,10.4
Mark Schumacher,50,8,25,25,668,26.7,93-180,51.7,1-10,10,48-83,57.8,41,78,119,4.8,62,0,26,1,41,1.6,0.6,18,0.7,11,0.4,235,9.4
Ronnie Ortiz,4,8,23,16,512,22.3,71-168,42.3,20-51,39.2,34-48,70.8,5,28,33,1.4,45,1,69,3,58,2.5,1.2,1,0,14,0.6,196,8.5
Wylie Ferron,34,8,16,13,367,22.9,45-109,41.3,6-25,24,39-57,68.4,23,44,67,4.2,42,1,24,1.5,21,1.3,1.1,13,0.8,11,0.7,135,8.4
Connor Kaiser,21,8,22,12,504,22.9,55-116,47.4,29-53,54.7,23-34,67.6,23,31,54,2.5,26,0,48,2.2,45,2,1.1,1,0,16,0.7,162,7.4
Nick Ogren,30,8,25,22,577,23.1,41-117,35,31-86,36,24-31,77.4,7,31,38,1.5,28,0,31,1.2,33,1.3,0.9,0,0,13,0.5,137,5.5
Jake Rhyner,2,8,22,-,323,14.7,34-91,37.4,13-45,28.9,15-17,88.2,5,33,38,1.7,27,0,13,0.6,19,0.9,0.7,1,0,5,0.2,96,4.4
Bakari Collins,23,8,23,-,308,13.4,32-85,37.6,10-32,31.3,10-18,55.6,7,36,43,1.9,17,0,16,0.7,33,1.4,0.5,2,0.1,11,0.5,84,3.7
Zach Hinrichs,42,8,24,5,353,14.7,38-91,41.8,0-0,-,8-15,53.3,15,31,46,1.9,34,1,12,0.5,28,1.2,0.4,1,0,5,0.2,84,3.5
Treyvon Edwards,24,8,4,-,70,17.5,4-12,33.3,1-2,50,1-2,50,5,6,11,2.8,6,-,3,0.8,7,1.8,0.4,2,0.5,1,0.3,10,2.5
Chad Schlosser,25,8,23,7,263,11.4,19-40,47.5,0-3,0,10-16,62.5,17,24,41,1.8,13,0,12,0.5,13,0.6,0.9,1,0,11,0.5,48,2.1
Stevie Moman,5,8,19,-,152,8,9-28,32.1,4-14,28.6,6-11,54.5,9,12,21,1.1,15,0,7,0.4,11,0.6,0.6,0,0,3,0.2,28,1.5
Aaron Romportl,20,8,4,-,51,12.8,2-6,33.3,0-2,0,0-0,-,0,4,4,1,6,-,9,2.3,2,0.5,4.5,0,0,2,0.5,4,1
Brandon Retzlaff,10,8,10,-,23,2.3,3-7,42.9,2-4,50,0-2,0,2,2,4,0.4,2,0,2,0.2,0,0,-,0,0,0,0,8,0.8
Matt Kryzer,14,8,11,-,27,2.5,1-4,25,0-1,0,0-0,-,0,3,3,0.3,1,0,1,0.1,1,0.1,1,0,0,0,0,2,0.2
Liam Gordon,3,8,12,-,24,2,0-8,0,0-8,0,2-4,50,1,2,3,0.3,0,0,1,0.1,1,0.1,1,0,0,0,0,2,0.2
Ben Figini,42,9,28,26,733,26.2,195-345,56.5,0-0,-,84-140,60,57,105,162,5.8,65,2,20,0.7,40,1.4,0.5,19,0.7,15,0.5,474,16.9
Justin Pahl,24,9,29,28,850,29.3,106-261,40.6,56-146,38.4,120-142,84.5,11,53,64,2.2,51,1,68,2.3,38,1.3,1.8,3,0.1,28,1,388,13.4
Sterling Nielsen,14,9,29,29,906,31.2,131-297,44.1,16-55,29.1,77-102,75.5,20,77,97,3.3,57,1,113,3.9,48,1.7,2.4,4,0.1,40,1.4,355,12.2
Riley Aeikens,34,9,29,29,836,28.8,100-204,49,19-41,46.3,67-83,80.7,37,99,136,4.7,46,1,80,2.8,34,1.2,2.4,24,0.8,53,1.8,286,9.9
Mason Braden,40,9,29,4,419,14.4,68-114,59.6,0-0,-,14-18,77.8,25,35,60,2.1,15,0,14,0.5,9,0.3,1.6,3,0.1,1,0,150,5.2
Sam Daly,21,9,28,28,552,19.7,58-118,49.2,14-35,40,12-18,66.7,19,59,78,2.8,54,0,18,0.6,18,0.6,1,6,0.2,14,0.5,142,5.1
Austin Majeskie,30,9,28,-,413,14.8,51-97,52.6,21-48,43.8,14-23,60.9,12,68,80,2.9,29,0,31,1.1,15,0.5,2.1,6,0.2,7,0.3,137,4.9
Caleb Lunning,1,9,25,-,359,14.4,26-53,49.1,10-17,58.8,11-13,84.6,15,25,40,1.6,24,0,21,0.8,11,0.4,1.9,2,0.1,7,0.3,73,2.9
Robert Tobroxen,32,9,28,-,366,13.1,28-57,49.1,9-18,50,15-20,75,17,54,71,2.5,18,0,28,1,19,0.7,1.5,3,0.1,21,0.8,80,2.9
Evan O'Dorisio,10,9,27,-,244,9,22-45,48.9,7-17,41.2,13-17,76.5,6,18,24,0.9,17,0,25,0.9,14,0.5,1.8,1,0,7,0.3,64,2.4
Sam Lagus,12,9,10,-,40,4,5-9,55.6,1-1,100,1-2,50,2,5,7,0.7,1,0,4,0.4,1,0.1,4,0,0,0,0,12,1.2
Nate Gelle,22,9,14,1,66,4.7,5-10,50,1-4,25,0-2,0,0,4,4,0.3,3,0,1,0.1,1,0.1,1,1,0.1,1,0.1,11,0.8
Daniel Katuka,31,9,9,-,38,4.2,3-6,50,0-0,-,1-2,50,2,4,6,0.7,9,0,2,0.2,6,0.7,0.3,1,0.1,1,0.1,7,0.8
Marcus Alipate,1,10,28,28,755,27,126-287,43.9,76-164,46.3,42-56,75,10,25,35,1.3,45,0,43,1.5,27,1,1.6,1,0,26,0.9,370,13.2
Taylor Montero,24,10,27,27,730,27,116-236,49.2,53-119,44.5,40-49,81.6,38,87,125,4.6,48,1,39,1.4,29,1.1,1.3,6,0.2,31,1.1,325,12
Conner Nord,33,10,28,28,783,28,123-252,48.8,0-0,-,59-91,64.8,69,135,204,7.3,54,0,41,1.5,43,1.5,1,8,0.3,17,0.6,305,10.9
Grant Shaeffer,4,10,28,28,853,30.5,111-208,53.4,10-30,33.3,62-86,72.1,6,56,62,2.2,32,0,119,4.3,45,1.6,2.6,0,0,24,0.9,294,10.5
Cortez Tillman,5,10,27,1,646,23.9,89-176,50.6,41-86,47.7,48-59,81.4,11,42,53,2,43,0,59,2.2,22,0.8,2.7,3,0.1,27,1,267,9.9
Ryan Saarela,34,10,27,26,702,26,106-177,59.9,0-1,0,28-43,65.1,86,87,173,6.4,54,1,31,1.1,27,1,1.1,27,1,33,1.2,240,8.9
Jimmy Remke,50,10,26,-,354,13.6,59-139,42.4,13-40,32.5,27-36,75,32,69,101,3.9,37,0,10,0.4,18,0.7,0.6,10,0.4,9,0.3,158,6.1
Jordan Burich,30,10,7,-,31,4.4,6-10,60,0-0,-,2-6,33.3,9,2,11,1.6,2,0,0,0,0,0,-,0,0,1,0.1,14,2
Tony Kuplic,3,10,3,-,9,3,2-4,50,1-2,50,0-2,0,1,2,3,1,1,-,2,0.7,1,0.3,2,1,0.3,0,0,5,1.7
Will Dunn,14,10,21,-,158,7.5,10-26,38.5,1-6,16.7,5-7,71.4,2,9,11,0.5,15,0,8,0.4,5,0.2,1.6,0,0,2,0.1,26,1.2
Ryan Boll,20,10,22,-,149,6.8,10-25,40,2-5,40,2-9,22.2,5,12,17,0.8,10,0,6,0.3,7,0.3,0.9,3,0.1,3,0.1,24,1.1
Jimmy Ancius,42,10,25,2,185,7.4,10-26,38.5,0-1,0,6-11,54.5,10,20,30,1.2,12,0,12,0.5,2,0.1,6,1,0,11,0.4,26,1
Thomas Sjoberg,10,10,9,-,46,5.1,2-10,20,1-4,25,4-5,80,0,4,4,0.4,2,0,4,0.4,2,0.2,2,1,0.1,2,0.2,9,1
Dustin Fronk,32,10,12,-,38,3.2,3-15,20,2-9,22.2,2-2,100,1,3,4,0.3,2,0,3,0.3,4,0.3,0.8,0,0,3,0.3,10,0.8
Cullen Ogren,52,10,10,-,25,2.5,3-8,37.5,0-0,-,2-3,66.7,4,7,11,1.1,0,0,1,0.1,2,0.2,0.5,1,0.1,0,0,8,0.8
John Veil,12,10,14,-,115,8.2,5-13,38.5,0-1,0,1-1,100,3,10,13,0.9,2,0,13,0.9,5,0.4,2.6,1,0.1,2,0.1,11,0.8
Ryan Johnson,22,10,12,-,53,4.4,4-9,44.4,0-1,0,1-1,100,1,3,4,0.3,9,0,2,0.2,4,0.3,0.5,0,0,0,0,9,0.8
Kory Deadrick,40,10,6,-,14,2.3,1-3,33.3,1-1,100,0-0,-,1,1,2,0.3,1,-,0,0,1,0.2,0,1,0.2,1,0.2,3,0.5
Brock Deering,54,10,1,-,2,2,0-0,-,0-0,-,0-0,-,0,2,2,2,0,-,0,0,0,0,-,0,0,0,0,0,0